Summarize the migration of a data frame — migrate • migrate
…
A data frame containing three (3) column variables representing the unique
combinations of starting & ending credit risk states and the calculated migration
observed during the period.

    Examples

# Return the percent migration of the number of credit facilities
migrate(
  data = mock_credit,
  id = customer_id,
  time = date,
  state = risk_rating
)
#> === Migrating from: `2020-06-30` --> `2020-09-30` ===
#> # A tibble: 49 × 3
#>    risk_rating_start risk_rating_end   prop
#>    <ord>             <ord>            <dbl>
#>  1 AAA               AAA             0.774 
#>  2 AAA               AA              0.194 
#>  3 AAA               A               0.0323
#>  4 AAA               BBB             0     
#>  5 AAA               BB              0     
#>  6 AAA               B               0     
#>  7 AAA               CCC             0     
#>  8 AA                AAA             0.101 
#>  9 AA                AA              0.663 
#> 10 AA                A               0.157 
#> # ℹ 39 more rows

# Return the absolute migration in `principal_balance`
migrate(
  data = mock_credit,
  id = customer_id,
  time = date,
  state = risk_rating,
  metric = principal_balance,
  percent = FALSE
)
#> === Migrating from: `2020-06-30` --> `2020-09-30` ===
#> # A tibble: 49 × 3
#>    risk_rating_start risk_rating_end principal_balance
#>    <ord>             <ord>                       <dbl>
#>  1 AAA               AAA                      29042000
#>  2 AAA               AA                        6575000
#>  3 AAA               A                           20000
#>  4 AAA               BBB                             0
#>  5 AAA               BB                              0
#>  6 AAA               B                               0
#>  7 AAA               CCC                             0
#>  8 AA                AAA                       6445000
#>  9 AA                AA                       58095000
#> 10 AA                A                        13045000
#> # ℹ 39 more rows
…
